п»ҝ{
    "recetas":  [
                    {
                        "id":  "FM-M4560-ACT-02501",
                        "sexo":  "mujer",
                        "grupo_edad":  "45-60",
                        "nombre_es":  "Jengibre fresco FoodГӮВ·Mood",
                        "nombre_en":  "Activator with pomelo rosa",
                        "mood_es":  "ActivaciГғВіn \u0026 EnergГғВӯa",
                        "mood_en":  "Activation \u0026 Energy",
                        "capitulo":  1,
                        "contexto_es":  "ActivaciГғВіn \u0026 EnergГғВӯa ГўВҖВ” bowl de activaciГғВіn",
                        "contexto_en":  "Activation \u0026 Energy ГўВҖВ” parfait de kГғВ©fir",
                        "base_acida":  "vinagre de kombucha de tГғВ© verde (10 ml)",
                        "ingredientes_es":  [
                                                "vinagre de kombucha de tГғВ© verde (10 ml)",
                                                "bergamota ГўВҖВ” 50 g",
                                                "mandarina ГўВҖВ” 80 g",
                                                "rГғВәcula ГўВҖВ” 80 g",
                                                "apio ГўВҖВ” 80 g",
                                                "atГғВәn fresco ГўВҖВ” 30 g",
                                                "cacao crudo ГўВҖВ” 2 cdas",
                                                "miel cruda de tomillo ГўВҖВ” 2 cdas"
                                            ],
                        "preparacion_es":  [
                                               "Calienta el aceite con las especias hasta que aromen.",
                                               "SofrГғВӯe la proteГғВӯna brevemente.",
                                               "AГғВұade las verduras crudas encima.",
                                               "Emulsiona el vinagre con la miel.",
                                               "Vierte el aliГғВұo. Come caliente."
                                           ],
                        "variantes_es":  [
                                             "express (3 min): todo en el vaso",
                                             "spa: reduce el ГғВЎcido, aГғВұade pepino y menta"
                                         ],
                        "nota_food_mood_es":  "La acidez del vinagre estimula la motilidad intestinal, clave para la sГғВӯntesis de neurotransmisores. El eje intestino-cerebro recibe su primera seГғВұal del dГғВӯa: activaciГғВіn limpia sin inflamaciГғВіn. Especialmente indicada en la perimenopausia: activa el eje suprarrenal sin excitar el cortisol. Los ГғВЎcidos vivos apoyan la absorciГғВіn de hierro y vitamina D, frecuentemente deficientes en esta etapa.",
                        "qr_es":  "El vinagre de kombucha activa el nervio vago y estimula la producciГғВіn intestinal de serotonina. Fuente de energГғВӯa limpia sin pico de cortisol. Tu eje intestino-cerebro empieza el dГғВӯa en modo activo.",
                        "qr_en":  "El vinagre de kombucha activa el nervio vago y estimula la producciГғВіn intestinal de serotonina. Fuente de energГғВӯa limpia sin pico de cortisol. Tu eje intestino-cerebro empieza el dГғВӯa en modo activo.",
                        "tags":  [
                                     "cap1",
                                     "activacion",
                                     "hedonista",
                                     "kombucha",
                                     "45-60",
                                     "antiinflamatorio",
                                     "mujer",
                                     "probiГғВіtico"
                                 ],
                        "tiempo_preparacion_min":  25,
                        "dificultad":  "media",
                        "temporada":  "otoГғВұo-invierno",
                        "tipo_plato":  "shot activador",
                        "created_at":  "2026-04-01T13:56:22.965283+00:00",
                        "fts":  "\u002710\u0027:13 \u0027activ\u0027:6 \u0027food\u0027:3 \u0027fresc\u0027:2 \u0027jengibr\u0027:1 \u0027kombuch\u0027:9 \u0027ml\u0027:14 \u0027mood\u0027:4 \u0027shot\u0027:5 \u0027te\u0027:11 \u0027verd\u0027:12 \u0027vinagr\u0027:7"
                    },
                    {
                        "id":  "FM-M4560-ACT-02502",
                        "sexo":  "mujer",
                        "grupo_edad":  "45-60",
                        "nombre_es":  "Amanecer ГўВҖВ” yuzu",
                        "nombre_en":  "Boost with jengibre fresco",
                        "mood_es":  "ActivaciГғВіn \u0026 EnergГғВӯa",
                        "mood_en":  "Activation \u0026 Energy",
                        "capitulo":  1,
                        "contexto_es":  "ActivaciГғВіn \u0026 EnergГғВӯa ГўВҖВ” parfait de kГғВ©fir",
                        "contexto_en":  "Activation \u0026 Energy ГўВҖВ” zumo prensado en frГғВӯo",
                        "base_acida":  "vinagre de manzana crudo con madre (1 cdta)",
                        "ingredientes_es":  [
                                                "vinagre de manzana crudo con madre (1 cdta)",
                                                "limГғВіn ГўВҖВ” 80 g",
                                                "bergamota ГўВҖВ” 80 g",
                                                "alcachofa ГўВҖВ” 30 g",
                                                "escarola ГўВҖВ” 30 g",
                                                "queso de cabra ГўВҖВ” 30 g",
                                                "miel cruda de tomillo ГўВҖВ” 1 cda",
                                                "semillas de chГғВӯa ГўВҖВ” 1 cdta"
                                            ],
                        "preparacion_es":  [
                                               "Tritura el jengibre y el cГғВӯtrico con el vinagre de kombucha.",
                                               "Filtra y reserva el lГғВӯquido activador.",
                                               "DispГғВіn la base en el plato.",
                                               "AГғВұade la proteГғВӯna y los extras.",
                                               "Corona con el lГғВӯquido y flor de sal."
                                           ],
                        "variantes_es":  [
                                             "vegan: reemplaza proteГғВӯna animal por tempeh marinado",
                                             "express (3 min): todo en el vaso"
                                         ],
                        "nota_food_mood_es":  "La acidez del vinagre estimula la motilidad intestinal, clave para la sГғВӯntesis de neurotransmisores. El eje intestino-cerebro recibe su primera seГғВұal del dГғВӯa: activaciГғВіn limpia sin inflamaciГғВіn. Especialmente indicada en la perimenopausia: activa el eje suprarrenal sin excitar el cortisol. Los ГғВЎcidos vivos apoyan la absorciГғВіn de hierro y vitamina D, frecuentemente deficientes en esta etapa.",
                        "qr_es":  "El vinagre de kombucha activa el nervio vago y estimula la producciГғВіn intestinal de serotonina. Fuente de energГғВӯa limpia sin pico de cortisol. Tu eje intestino-cerebro empieza el dГғВӯa en modo activo.",
                        "qr_en":  "El vinagre de kombucha activa el nervio vago y estimula la producciГғВіn intestinal de serotonina. Fuente de energГғВӯa limpia sin pico de cortisol. Tu eje intestino-cerebro empieza el dГғВӯa en modo activo.",
                        "tags":  [
                                     "cap1",
                                     "activacion",
                                     "hedonista",
                                     "45-60",
                                     "fermentado",
                                     "adaptГғВіgeno",
                                     "mujer",
                                     "vinagre_vivo"
                                 ],
                        "tiempo_preparacion_min":  40,
                        "dificultad":  "media",
                        "temporada":  "todo el aГғВұo",
                        "tipo_plato":  "shot activador",
                        "created_at":  "2026-04-01T13:56:22.965283+00:00",
                        "fts":  "\u00271\u0027:11 \u0027activ\u0027:4 \u0027amanec\u0027:1 \u0027cdta\u0027:12 \u0027crud\u0027:8 \u0027madr\u0027:10 \u0027manzan\u0027:7 \u0027shot\u0027:3 \u0027vinagr\u0027:5 \u0027yuzu\u0027:2"
                    },
                    {
                        "id":  "FM-M4560-ACT-02503",
                        "sexo":  "mujer",
                        "grupo_edad":  "45-60",
                        "nombre_es":  "TazГғВіn de desayuno activador",
                        "nombre_en":  "Aurora ГўВҖВ” cГғВәrcuma fresca",
                        "mood_es":  "ActivaciГғВіn \u0026 EnergГғВӯa",
                        "mood_en":  "Activation \u0026 Energy",
                        "capitulo":  1,
                        "contexto_es":  "ActivaciГғВіn \u0026 EnergГғВӯa ГўВҖВ” tazГғВіn de desayuno",
                        "contexto_en":  "Activation \u0026 Energy ГўВҖВ” bowl de activaciГғВіn",
                        "base_acida":  "vinagre de manzana crudo con madre (1 cdta)",
                        "ingredientes_es":  [
                                                "vinagre de manzana crudo con madre (1 cdta)",
                                                "bergamota ГўВҖВ” 100 g",
                                                "pomelo rosa ГўВҖВ” 100 g",
                                                "rГғВәcula ГўВҖВ” 100 g",
                                                "endivias ГўВҖВ” 80 g",
                                                "tempeh marinado ГўВҖВ” 30 g",
                                                "semillas de chГғВӯa ГўВҖВ” 1 cda",
                                                "pimienta negra ГўВҖВ” ГӮВҪ cdta"
                                            ],
                        "preparacion_es":  [
                                               "Tritura el jengibre y el cГғВӯtrico con el vinagre de kombucha.",
                                               "Filtra y reserva el lГғВӯquido activador.",
                                               "DispГғВіn la base en el plato.",
                                               "AГғВұade la proteГғВӯna y los extras.",
                                               "Corona con el lГғВӯquido y flor de sal."
                                           ],
                        "variantes_es":  [
                                             "express (3 min): todo en el vaso",
                                             "spa: reduce el ГғВЎcido, aГғВұade pepino y menta"
                                         ],
                        "nota_food_mood_es":  "El vinagre de kombucha activa el nervio vago y estimula la producciГғВіn intestinal de serotonina, iniciando el dГғВӯa desde el eje intestino-cerebro. Fuente de energГғВӯa limpia sin pico de cortisol. Especialmente indicada en la perimenopausia: activa el eje suprarrenal sin excitar el cortisol. Los ГғВЎcidos vivos apoyan la absorciГғВіn de hierro y vitamina D, frecuentemente deficientes en esta etapa.",
                        "qr_es":  "El vinagre de kombucha activa el nervio vago y estimula la producciГғВіn intestinal de serotonina. Fuente de energГғВӯa limpia sin pico de cortisol. Tu eje intestino-cerebro empieza el dГғВӯa en modo activo.",
                        "qr_en":  "El vinagre de kombucha activa el nervio vago y estimula la producciГғВіn intestinal de serotonina. Fuente de energГғВӯa limpia sin pico de cortisol. Tu eje intestino-cerebro empieza el dГғВӯa en modo activo.",
                        "tags":  [
                                     "cap1",
                                     "activacion",
                                     "45-60",
                                     "kombucha",
                                     "prebiГғВіtico",
                                     "adaptГғВіgeno",
                                     "mujer",
                                     "vinagre_vivo"
                                 ],
                        "tiempo_preparacion_min":  8,
                        "dificultad":  "media",
                        "temporada":  "primavera-verano",
                        "tipo_plato":  "bowl de activaciГғВіn",
                        "created_at":  "2026-04-01T13:56:22.965283+00:00",
                        "fts":  "\u00271\u0027:14 \u0027activ\u0027:4,7 \u0027bowl\u0027:5 \u0027cdta\u0027:15 \u0027crud\u0027:11 \u0027desayun\u0027:3 \u0027madr\u0027:13 \u0027manzan\u0027:10 \u0027tazon\u0027:1 \u0027vinagr\u0027:8"
                    }
                ],
    "total":  1250,
    "page":  1,
    "totalPages":  417
}
